Digitec Analysis
…
# Convert to named vector for mapping
code_map <- setNames(unlist(canton_codes), names(canton_codes))

# Replace canton names with codes and remove non-cantons
cleaned_population <- population %>%
  filter(canton %in% names(canton_codes)) %>%
  mutate(canton = code_map[canton])

# Display the processed excel data
print(cleaned_population)

# A tibble: 26 × 19
   canton   total `age_from_0-19` `age_from_20-64` age_from_65_and_over
   <chr>    <dbl>           <dbl>            <dbl>                <dbl>
 1 VD      845870          184231           519663               141976
 2 VS      365844           70577           219937                75330
 3 GE      524410          111028           326994                86388
 4 BE     1063533          203904           624823               234806
 5 FR      341537           74535           209478                57524
 6 SO      286844           55335           171450                60059
 7 NE      178291           36388           106520                35383
 8 JU       74548           15217            42651                16680
 9 BS      200031           35405           125332                39294
10 BL      298837           57976           172325                68536
# ℹ 16 more rows
# ℹ 14 more variables: male_population <dbl>, female_population <dbl>,
#   swiss_citizenship <dbl>, foreigner_citizenship <dbl>, single_status <dbl>,
#   married_status <dbl>, widowed_status <dbl>, divorced_status <dbl>,
#   unmarried_status <dbl>, in_a_registered_partnership_status <dbl>,
#   partnership_dissolved <dbl>, urban_commune <dbl>,
#   intermediate_commune <dbl>, rural_commune <dbl>

3.7. Merging Transaction and Demographic Data

# Merge on canton code
merged_data <- left_join(canton_data_final, cleaned_population, by = "canton")

# View merged dataset
print(merged_data)

# A tibble: 26 × 24
   canton total_sales num_transactions avg_order_value top_brand top_category 
   <chr>        <dbl>            <int>           <dbl> <chr>     <chr>        
 1 ZH        6527271.            38785            168. Apple     kopfhoerer-48
 2 BE        2944611.            18198            162. Apple     kopfhoerer-48
 3 AG        2238346.            13593            165. Apple     smartphone-24
 4 VD        1989040.            12568            158. Apple     kopfhoerer-48
 5 SG        1507276.             8819            171. Apple     smartphone-24
 6 LU        1192010.             7415            161. Samsung   smartphone-24
 7 GE        1185472.             6804            174. Samsung   kopfhoerer-48
 8 TG         920509.             5299            174. Apple     smartphone-24
 9 BL         815194.             5021            162. Apple     smartphone-24
10 SO         756160.             4645            163. Apple     smartphone-24
# ℹ 16 more rows
# ℹ 18 more variables: total <dbl>, `age_from_0-19` <dbl>,
#   `age_from_20-64` <dbl>, age_from_65_and_over <dbl>, male_population <dbl>,
#   female_population <dbl>, swiss_citizenship <dbl>,
#   foreigner_citizenship <dbl>, single_status <dbl>, married_status <dbl>,
#   widowed_status <dbl>, divorced_status <dbl>, unmarried_status <dbl>,
#   in_a_registered_partnership_status <dbl>, partnership_dissolved <dbl>, …
…
  # Marital status
  share_single = single_status / total,
  share_married = married_status / total,
  share_widowed = widowed_status / total,
  share_divorced = divorced_status / total
)
 
# Display final merged data with computed values (note: removal of orignal values.)
print(computed_merged_data)

# A tibble: 26 × 40
   canton total_sales num_transactions avg_order_value top_brand top_category 
   <chr>        <dbl>            <int>           <dbl> <chr>     <chr>        
 1 ZH        6527271.            38785            168. Apple     kopfhoerer-48
 2 BE        2944611.            18198            162. Apple     kopfhoerer-48
 3 AG        2238346.            13593            165. Apple     smartphone-24
 4 VD        1989040.            12568            158. Apple     kopfhoerer-48
 5 SG        1507276.             8819            171. Apple     smartphone-24
 6 LU        1192010.             7415            161. Samsung   smartphone-24
 7 GE        1185472.             6804            174. Samsung   kopfhoerer-48
 8 TG         920509.             5299            174. Apple     smartphone-24
 9 BL         815194.             5021            162. Apple     smartphone-24
10 SO         756160.             4645            163. Apple     smartphone-24
# ℹ 16 more rows
# ℹ 34 more variables: total <dbl>, `age_from_0-19` <dbl>,
#   `age_from_20-64` <dbl>, age_from_65_and_over <dbl>, male_population <dbl>,
#   female_population <dbl>, swiss_citizenship <dbl>,
#   foreigner_citizenship <dbl>, single_status <dbl>, married_status <dbl>,
#   widowed_status <dbl>, divorced_status <dbl>, unmarried_status <dbl>,
#   in_a_registered_partnership_status <dbl>, partnership_dissolved <dbl>, …
…
